\relax 
\providecommand\hyper@newdestlabel[2]{}
\providecommand{\transparent@use}[1]{}
\providecommand\HyperFirstAtBeginDocument{\AtBeginDocument}
\HyperFirstAtBeginDocument{\ifx\hyper@anchor\@undefined
\global\let\oldcontentsline\contentsline
\gdef\contentsline#1#2#3#4{\oldcontentsline{#1}{#2}{#3}}
\global\let\oldnewlabel\newlabel
\gdef\newlabel#1#2{\newlabelxx{#1}#2}
\gdef\newlabelxx#1#2#3#4#5#6{\oldnewlabel{#1}{{#2}{#3}}}
\AtEndDocument{\ifx\hyper@anchor\@undefined
\let\contentsline\oldcontentsline
\let\newlabel\oldnewlabel
\fi}
\fi}
\global\let\hyper@last\relax 
\gdef\HyperFirstAtBeginDocument#1{#1}
\providecommand\HyField@AuxAddToFields[1]{}
\providecommand\HyField@AuxAddToCoFields[2]{}
\citation{Sandeep2018}
\citation{Selvanayagam2013}
\citation{Selvanayagam2013}
\citation{Epstein2016}
\@writefile{toc}{\contentsline {section}{\numberline {1}Overview}{1}{section.1}\protected@file@percent }
\@writefile{toc}{\contentsline {section}{\numberline {2}Deriving field relation (A matrix) from impedances}{1}{section.2}\protected@file@percent }
\@writefile{lof}{\contentsline {figure}{\numberline {1}{\ignorespaces Incident, scattered, and transmitted fields from Fig. 10 of Selvanayagam \cite  {Selvanayagam2013}}}{1}{figure.1}\protected@file@percent }
\newlabel{SelvanayagamFields}{{1}{1}{Incident, scattered, and transmitted fields from Fig. 10 of Selvanayagam \cite {Selvanayagam2013}}{figure.1}{}}
\newlabel{SelvanayagamFields@cref}{{[figure][1][]1}{[1][1][]1}}
\citation{Jin2010}
\@writefile{toc}{\contentsline {section}{\numberline {3}Deriving \textbf  {Z} matrix for a sheet instead of a cylinder}{2}{section.3}\protected@file@percent }
\@writefile{toc}{\contentsline {section}{\numberline {4}Verifying with Matlab}{3}{section.4}\protected@file@percent }
\@writefile{toc}{\contentsline {subsection}{\numberline {4.1}Results}{3}{subsection.4.1}\protected@file@percent }
\@writefile{lof}{\contentsline {figure}{\numberline {2}{\ignorespaces Far field pattern using metamom.m MoM Formulation}}{4}{figure.2}\protected@file@percent }
\newlabel{MetamomFF}{{2}{4}{Far field pattern using metamom.m MoM Formulation}{figure.2}{}}
\newlabel{MetamomFF@cref}{{[figure][2][]2}{[1][3][]4}}
\@writefile{lof}{\contentsline {figure}{\numberline {3}{\ignorespaces Far field pattern using Sandeep MoM Formulation}}{5}{figure.3}\protected@file@percent }
\newlabel{SandeepFF}{{3}{5}{Far field pattern using Sandeep MoM Formulation}{figure.3}{}}
\newlabel{SandeepFF@cref}{{[figure][3][]3}{[1][3][]5}}
\bibstyle{ieeetr}
\bibdata{../../../Mendeley/library}
\bibcite{Sandeep2018}{1}
\bibcite{Selvanayagam2013}{2}
\bibcite{Epstein2016}{3}
\bibcite{Jin2010}{4}
\@writefile{lof}{\contentsline {figure}{\numberline {4}{\ignorespaces Surface current comparison between Sandeep and metamom.m}}{6}{figure.4}\protected@file@percent }
\newlabel{CurrentCompare}{{4}{6}{Surface current comparison between Sandeep and metamom.m}{figure.4}{}}
\newlabel{CurrentCompare@cref}{{[figure][4][]4}{[1][3][]6}}
